{
  "version": 2,
  "builds": [{ "src": "hls_extractor.py", "use": "@vercel/python" }],
  "routes": [
    { "handle": "filesystem" },
    {
      "src": "/api/extract_hls",
      "dest": "/hls_extractor.py"
    }
  ],
  "functions": {
    "api/extract_hls": {
      "runtime": "python3.9"
    }
  }
}
